ax,ay,az
2708,-2824,15212
2652,-2860,15212
2628,-2808,15164
2720,-2900,15212
2628,-2868,15196
2620,-2808,15300
2592,-2888,15116
2644,-2852,15200
2640,-2856,15192
2544,-2824,15260
2680,-2832,15272
2644,-2844,15220
2684,-2880,15296
2580,-2888,15048
2644,-2908,15340
2660,-2828,15188
2616,-2868,15208
2584,-2788,15116
2656,-2868,15268
2636,-2872,15124
2676,-2876,15260
2632,-2784,15260
2628,-2864,15312
2644,-2876,15132
2656,-2816,15212
2636,-2824,15232
2664,-2836,15204
2648,-2832,15308
2668,-2876,15300
2652,-2852,15272
2628,-2836,15124
2640,-2864,15188
2616,-2836,15284
2588,-2860,15188
2596,-2836,15340
2700,-2872,15152
2676,-2848,15252
2608,-2836,15240
2616,-2880,15272
2600,-2872,15304
2600,-2804,15256
2628,-2804,15312
2644,-2908,15300
2584,-2840,15256
2688,-2896,15092
2632,-2860,15324
2672,-2876,15132
2632,-2872,15152
2684,-2860,15260
2596,-2824,15244
2716,-2852,15164
2620,-2864,15192
2600,-2832,15196
2592,-2820,15236
2644,-2888,15288
2624,-2940,15248
2616,-2792,15248
2644,-2836,15200
2632,-2888,15220
2544,-2884,15228
2684,-2864,15216
2608,-2860,15344
2624,-2832,15128
2708,-2888,15204
2680,-2836,15296
2624,-2832,15216
2680,-2840,15240
2636,-2832,15288
2588,-2888,15248
2596,-2812,15224
2604,-2880,15212
2584,-2832,15324
2604,-2848,15256
2664,-2820,15284
2580,-2816,15208
2632,-2844,15228
2668,-2844,15156
2644,-2828,15224
2632,-2856,15248
2604,-2832,15184
2624,-2804,15284
2620,-2804,15332
2628,-2848,15204
2592,-2844,15304
2636,-2788,15228
2620,-2856,15252
2632,-2820,15268
2680,-2828,15260
2612,-2832,15280
2632,-2884,15192
2664,-2836,15192
2632,-2840,15248
2652,-2856,15228
2656,-2800,15180
2632,-2860,15260
2656,-2844,15228
2624,-2844,15244
2688,-2876,15216
2620,-2836,15220
2712,-2916,15328
2672,-2816,15156
2688,-2860,15276
2636,-2860,15264
2652,-2912,15216
2624,-2860,15172
2636,-2856,15236
2528,-2828,15280
2700,-2896,15208
2620,-2824,15260
2628,-2888,15268
2652,-2836,15248
2632,-2816,15196
2632,-2892,15192
2628,-2856,15128
2644,-2856,15244
2680,-2864,15144
2628,-2872,15140
2656,-2872,15328
2616,-2828,15220
2636,-2868,15340
2648,-2824,15212
2632,-2844,15148
2660,-2820,15224
2628,-2852,15240
2672,-2848,15304
2652,-2856,15208
2636,-2840,15200
2624,-2848,15272
2612,-2820,15320
2612,-2816,15256
2596,-2848,15188
2648,-2912,15244
2588,-2832,15128
2640,-2848,15180
2632,-2840,15176
2588,-2808,15200
2572,-2840,15196
2624,-2912,15320
2680,-2856,15196
2620,-2932,15228
2616,-2824,15220
2608,-2776,15284
2644,-2832,15332
2620,-2804,15328
2592,-2828,15244
2624,-2836,15160
2692,-2884,15136
2652,-2860,15204
2624,-2880,15264
2660,-2868,15292
2664,-2864,15280
2700,-2816,15320
2644,-2860,15256
2624,-2852,15252
2640,-2876,15364
2624,-2804,15232
2660,-2912,15264
2632,-2892,15220
2672,-2864,15176
2676,-2804,15248
2588,-2868,15208
2560,-2840,15200
2648,-2864,15204
2672,-2876,15236
2656,-2892,15312
2648,-2812,15268
2672,-2752,15244
2656,-2868,15340
2664,-2828,15224
2640,-2856,15248
2648,-2888,15164
2680,-2832,15160
2612,-2860,15220
2700,-2840,15232
2632,-2824,15180
2556,-2788,15212
2688,-2868,15248
2684,-2860,15264
2620,-2848,15252
2640,-2892,15248
2624,-2868,15224
2632,-2848,15176
2652,-2828,15224
2636,-2824,15180
2628,-2916,15140
2692,-2856,15348
2660,-2884,15260
2656,-2836,15208
2652,-2852,15204
2724,-2856,15168
2712,-2824,15180
2632,-2884,15320
2596,-2908,15176
2652,-2828,15224
2652,-2840,15308
2704,-2784,15236
2600,-2864,15144
2624,-2848,15108
2652,-2880,15276
2620,-2860,15252
2656,-2852,15264
2660,-2836,15160
2652,-2804,15212
2652,-2792,15344
2668,-2888,15168
